module gitlab.com/oz123/grafzahl

go 1.17

require (
	github.com/spf13/pflag v1.0.5
	k8s.io/api v0.23.1
	k8s.io/apimachinery v0.23.1
	k8s.io/client-go v0.23.1
	k8s.io/code-generator v0.23.1
)

require (
	github.com/PuerkitoBio/purell v1.1.1 // indirect
	github.com/PuerkitoBio/urlesc v0.0.0-20170810143723-de5bf2ad4578 // indirect
	github.com/boyter/scc v2.12.0+incompatible // indirect
	github.com/davecgh/go-spew v1.1.1 // indirect
	github.com/dbaggerman/cuba v0.3.2 // indirect
	github.com/emicklei/go-restful v2.9.5+incompatible // indirect
	github.com/evanphx/json-patch v4.12.0+incompatible // indirect
	github.com/go-logr/logr v1.2.0 // indirect
	github.com/go-openapi/jsonpointer v0.19.5 // indirect
	github.com/go-openapi/jsonreference v0.19.5 // indirect
	github.com/go-openapi/swag v0.19.14 // indirect
	github.com/gogo/protobuf v1.3.2 // indirect
	github.com/golang/groupcache v0.0.0-20210331224755-41bb18bfe9da // indirect
	github.com/golang/protobuf v1.5.2 // indirect
	github.com/google/go-cmp v0.5.6 // indirect
	github.com/google/gofuzz v1.1.0 // indirect
	github.com/googleapis/gnostic v0.5.5 // indirect
	github.com/imdario/mergo v0.3.5 // indirect
	github.com/inconshreveable/mousetrap v1.0.0 // indirect
	github.com/josharian/intern v1.0.0 // indirect
	github.com/json-iterator/go v1.1.12 // indirect
	github.com/mailru/easyjson v0.7.6 // indirect
	github.com/minio/blake2b-simd v0.0.0-20160723061019-3f5f724cb5b1 // indirect
	github.com/modern-go/concurrent v0.0.0-20180306012644-bacd9c7ef1dd // indirect
	github.com/modern-go/reflect2 v1.0.2 // indirect
	github.com/monochromegane/go-gitignore v0.0.0-20200626010858-205db1a8cc00 // indirect
	github.com/pkg/errors v0.9.1 // indirect
	github.com/spf13/cobra v1.3.0 // indirect
	golang.org/x/mod v0.5.0 // indirect
	golang.org/x/net v0.0.0-20211209124913-491a49abca63 // indirect
	golang.org/x/oauth2 v0.0.0-20211104180415-d3ed0bb246c8 // indirect
	golang.org/x/sys v0.0.0-20211205182925-97ca703d548d // indirect
	golang.org/x/term v0.0.0-20210615171337-6886f2dfbf5b // indirect
	golang.org/x/text v0.3.7 // indirect
	golang.org/x/time v0.0.0-20210723032227-1f47c861a9ac // indirect
	golang.org/x/tools v0.1.6-0.20210820212750-d4cc65f0b2ff // indirect
	golang.org/x/xerrors v0.0.0-20200804184101-5ec99f83aff1 // indirect
	google.golang.org/appengine v1.6.7 // indirect
	google.golang.org/protobuf v1.27.1 // indirect
	gopkg.in/inf.v0 v0.9.1 // indirect
	gopkg.in/yaml.v2 v2.4.0 // indirect
	gopkg.in/yaml.v3 v3.0.0-20210107192922-496545a6307b // indirect
	k8s.io/gengo v0.0.0-20210813121822-485abfe95c7c // indirect
	k8s.io/klog/v2 v2.30.0 // indirect
	k8s.io/kube-openapi v0.0.0-20211115234752-e816edb12b65 // indirect
	k8s.io/utils v0.0.0-20210930125809-cb0fa318a74b // indirect
	sigs.k8s.io/json v0.0.0-20211020170558-c049b76a60c6 // indirect
	sigs.k8s.io/structured-merge-diff/v4 v4.1.2 // indirect
	sigs.k8s.io/yaml v1.2.0 // indirect
)
